uuid,aaLoad_X_min,aaLoad_X_max,aaLoad_X_avg,aaLoad_X_wgtdAvg,aaLoad_X_dpNumber,status,scale,aaLoad_Y_min,aaLoad_Y_max,aaLoad_Y_avg,aaLoad_Y_wgtdAvg,aaLoad_Y_dpNumber,aaLoad_Z_min,aaLoad_Z_max,aaLoad_Z_avg,aaLoad_Z_wgtdAvg,aaLoad_Z_dpNumber,aaVactB_X_min,aaVactB_X_max,aaVactB_X_avg,aaVactB_X_wgtdAvg,aaVactB_X_dpNumber,aaVactB_Y_min,aaVactB_Y_max,aaVactB_Y_avg,aaVactB_Y_wgtdAvg,aaVactB_Y_dpNumber,aaVactB_Z_min,aaVactB_Z_max,aaVactB_Z_avg,aaVactB_Z_wgtdAvg,aaVactB_Z_dpNumber,actSpeed_min,actSpeed_max,actSpeed_avg,actSpeed_wgtdAvg,actSpeed_dpNumber,driveLoad_min,driveLoad_max,driveLoad_avg,driveLoad_wgtdAvg,driveLoad_dpNumber
b2e48e81-407e-4bc3-953c-d92a4fecbe46,0.6591796875,60.150146484375,17.49,17.46,754,nok,-0.058333333333269184,0.543212890625,15.130615234375,9.07,8.97,689,0.0,64.495849609375,2.35,2.35,714,-23993.369892637715,20066.88362786229,17.13,37.12,611,-45.0941205120501,53.91768515199487,2.01,0.07,26,-30000.0,30000.0,280.31,80.54,200,0.0,5003.702799479167,1492.99,1457.93,631,0.0,100.0,15.2,14.82,744
f2b69769-c0a9-41db-9fd9-f22662a80440,0.40283203125,46.54541015625,17.96,18.05,840,nok,-0.4833333333332988,0.5126953125,15.118408203125,8.75,8.66,789,0.006103515625,32.65380859375,2.23,2.15,808,-4800.000071525574,4800.000071525574,30.03,31.52,586,-10.78651701466421,10.786517014664211,0.6,0.06,23,-6000.000089406968,6000.000089406967,12.28,-6.93,182,0.0,5003.092447916667,1388.3,1348.82,667,0.0,100.0,13.67,13.33,837
6d2aa72f-31c4-4af8-95f3-0721c5f06d72,0.262451171875,85.089111328125,17.65,17.73,753,ok,0.4250000000000296,1.45263671875,15.3564453125,8.96,8.94,690,0.006103515625,70.025634765625,2.34,2.31,703,-16653.223646184048,20896.39800659763,-21.24,3.12,605,-46.958197767635106,37.422974485806854,2.86,0.07,26,-30000.0,30000.0,128.89,50.15,195,0.0,5006.998697916667,1492.72,1459.33,631,0.0,100.0,14.72,14.53,755
69bad2d0-541c-461b-81fd-36b6fe45c675,5.37109375,51.251220703125,18.08,18.12,844,nok,-0.32499999999997037,0.738525390625,15.0390625,8.78,8.69,803,0.0,32.647705078125,2.27,2.2,797,-4800.000071525574,4800.000071525574,9.37,-13.34,585,-10.78651701466421,10.786517014664211,-0.01,0.05,22,-6000.000089406968,6000.000089406967,-75.9,-27.75,185,0.0,5003.214518229167,1382.26,1340.87,670,0.0,100.0,13.82,13.7,840
4620b7b1-2c71-4026-b4f2-a4a9516b5394,1.23291015625,44.793701171875,18.07,18.13,844,nok,-0.09166666666659759,0.54931640625,14.947509765625,8.77,8.65,784,0.006103515625,34.9365234375,2.12,2.04,798,-4800.000071525574,4800.000071525574,-14.19,12.32,586,-92.80305513719637,10.786517014664211,-3.25,-0.05,25,-6000.000089406968,6000.000089406967,-45.06,-0.25,193,-16.398111979166668,5005.208333333333,1388.03,1346.07,669,0.0,99.993896484375,13.8,13.56,835
663f62b1-9462-43e2-89cc-6547a364e796,1.52587890625,55.340576171875,17.99,18.01,846,nok,-0.45833333333328397,0.701904296875,14.92919921875,8.79,8.66,777,0.01220703125,36.02294921875,2.28,2.23,810,-4800.000071525574,4800.000071525574,12.84,3.4,584,-46.50727697565422,10.786517014664211,-1.39,0.02,26,-6000.000089406968,6000.000089406967,60.66,4.39,193,0.0,5004.150390625,1379.1,1347.9,668,0.0,100.0,13.75,13.12,828
bebbe3c0-ebe2-43bb-a725-e2ba0a7d65df,0.93994140625,86.58447265625,17.77,17.78,750,ok,0.6166666666666863,0.897216796875,15.185546875,9.12,8.97,686,0.0,68.26171875,2.45,2.35,706,-23352.08595966484,20076.579722635528,-17.59,-13.74,607,-190.76547210994607,52.47659766216818,-3.18,-0.05,28,-30000.0,30000.0,-47.4,59.71,204,0.0,5002.522786458333,1495.94,1460.12,631,0.0,100.0,15.06,14.78,751
a02b1efd-01ac-4eff-acd0-c39cc953e313,2.740478515625,60.162353515625,17.89,17.95,754,ok,0.5,1.0009765625,14.910888671875,8.98,8.91,684,0.01220703125,69.62890625,2.4,2.31,699,-17792.90250005519,23555.893750436862,67.84,60.13,613,-36.03733467872716,39.98405056192177,3.0,0.13,21,-30000.0,30000.0,313.43,77.46,198,0.0,5004.231770833333,1498.69,1463.29,631,0.006103515625,100.0,14.36,14.36,752
eecc4481-93c8-4d14-bf0f-f58168cc6e6e,0.555419921875,81.768798828125,17.99,18.02,751,ok,0.31666666666665677,0.42724609375,14.5263671875,9.01,8.92,695,0.006103515625,54.425048828125,2.48,2.43,728,-24000.0,17028.37553313477,65.63,68.44,599,-38.266012434010726,53.932584269662925,1.77,0.05,24,-30000.0,30000.0,-144.41,22.94,205,0.0,5003.458658854167,1497.22,1461.27,631,0.0,100.0,14.64,14.23,748
642ad5f7-d509-43e1-a396-2e7c29505397,0.7568359375,62.24365234375,17.82,17.79,754,ok,0.3416666666666716,1.458740234375,14.617919921875,8.93,8.89,694,0.01220703125,68.7744140625,2.31,2.27,707,-24000.0,23999.914655963403,33.42,44.16,607,-53.93239248531101,53.932584269662925,1.09,0.05,25,-30000.0,30000.0,100.27,40.09,200,0.0,5003.336588541667,1494.47,1463.35,631,0.0,100.0,15.02,14.88,757
87576de4-ce37-4271-ae06-85c820754a67,0.177001953125,54.962158203125,17.67,17.68,756,ok,0.050000000000029604,0.634765625,14.78271484375,8.99,8.97,695,0.01220703125,71.47216796875,2.69,2.56,706,-22951.38283273746,24000.0,36.23,65.57,597,-53.93258426966291,53.932584269662925,1.61,0.04,25,-30000.0,30000.0,-90.06,-62.14,200,-30.069986979166668,5006.8359375,1489.51,1456.93,632,0.0,100.0,14.89,14.46,746
e223cb26-ca7b-4823-8dec-ad9bb8140d36,1.0986328125,51.18408203125,18.09,18.17,837,nok,-0.22499999999998518,0.28076171875,14.80712890625,8.8,8.68,784,0.0,32.794189453125,2.1,2.04,803,-4800.000071525574,4800.000071525574,11.93,2.14,581,-91.26024424189185,10.786517014664211,-3.77,-0.03,23,-6000.000089406968,6000.000089406967,-16.47,-1.59,190,0.0,5004.638671875,1387.85,1349.2,667,0.0,100.0,13.92,13.6,831
f57f3272-c022-4012-9eb3-d238455a35fd,0.286865234375,55.572509765625,18.04,18.1,838,nok,-0.291666666666642,0.59814453125,14.94140625,8.71,8.65,786,0.0,33.282470703125,2.22,2.16,815,-4800.000071525574,4800.000071525574,30.3,13.63,589,-10.78651701466421,10.786517014664211,-0.33,0.05,21,-6000.000089406968,6000.000089406967,15.38,3.98,195,0.0,5002.766927083333,1390.17,1346.93,666,0.0,99.993896484375,13.51,13.25,838
04f5d853-fa40-4664-9e5e-3fe166bcc291,0.299072265625,52.032470703125,18.1,18.16,841,nok,-0.4333333333332692,0.3662109375,14.630126953125,8.7,8.62,791,0.006103515625,25.0732421875,2.12,2.04,804,-4800.000071525574,4800.000071525574,-3.14,-3.17,585,-46.50727697565422,10.786517014664211,-1.42,0.0,25,-6000.000089406968,6000.000089406967,62.96,21.42,197,0.0,5004.8828125,1389.22,1350.59,668,0.0,100.0,13.15,12.91,844
10242892-cd75-497d-ac7a-7fb1f682ce1c,0.494384765625,77.18505859375,17.76,17.85,753,ok,0.375,0.8544921875,14.6484375,8.96,8.93,697,0.01220703125,65.203857421875,2.33,2.25,707,-15506.26679640441,24000.0,23.12,14.16,605,-49.995765032196786,33.95931673854722,-0.1,-0.01,25,-30000.0,30000.0,72.72,9.63,201,0.0,5004.597981770833,1495.72,1457.76,631,0.0,100.0,14.6,14.28,749
1392865a-e658-4681-9d19-b0d60fa63335,1.483154296875,73.321533203125,17.58,17.63,754,nok,0,0.72021484375,15.008544921875,9.1,9.0,691,0.0244140625,70.257568359375,2.73,2.59,700,-23352.08595966484,18612.808385529846,-50.53,-10.75,613,-36.03733467872716,52.47659766216818,4.53,0.16,26,-30000.0,30000.0,-218.98,-34.05,214,0.0,5008.829752604167,1494.22,1461.28,631,0.0,100.0,15.4,15.17,746
c6734460-192d-4999-90ac-53f9fd0d5334,0.543212890625,73.394775390625,17.66,17.68,756,ok,0.3583333333333728,1.763916015625,14.88037109375,9.03,8.94,683,0.006103515625,68.658447265625,2.37,2.27,697,-23352.08595966484,23799.873764010463,30.33,0.58,606,-53.482862391034736,52.47659766216818,1.7,0.12,25,-30000.0,30000.0,235.72,-35.5,200,0.0,5004.597981770833,1497.24,1462.1,632,0.0,100.0,14.91,14.57,751
68cfb7af-b07b-48fc-a932-6504505a4c7f,3.961181640625,54.022216796875,17.91,18.01,839,nok,-0.18333333333326918,0.372314453125,14.80712890625,8.72,8.7,781,0.0,34.381103515625,2.22,2.18,810,-4800.000071525574,4800.000071525574,11.55,10.29,581,-10.78651701466421,10.786517014664211,0.66,0.05,22,-6000.000089406968,6000.000089406967,-46.8,4.38,200,0.0,5002.3193359375,1391.65,1347.52,666,0.0,100.0,13.57,13.32,843
3d9a2198-cf79-4b75-aeea-aaae0cf752ec,3.460693359375,84.991455078125,17.67,17.66,748,ok,0.19166666666673082,1.129150390625,14.678955078125,9.08,8.96,686,0.006103515625,68.59130859375,2.6,2.49,705,-22454.679705810086,20896.39800659763,-36.89,-38.73,605,-245.88840659931643,50.459954395078846,-7.52,-0.25,28,-30000.0,30000.0,-264.7,-114.56,211,-4.842122395833333,5003.499348958333,1497.79,1459.84,630,0.0,100.0,14.84,14.97,745
03257ab2-23b3-498f-9c71-8d75b84b570a,1.0498046875,63.397216796875,17.49,17.52,752,ok,0.6083333333333728,1.0009765625,14.74609375,9.06,8.96,697,0.018310546875,72.357177734375,2.38,2.34,719,-24000.0,22241.634317007065,-28.09,-4.74,613,-49.981200712375426,34.40722092876558,-0.26,-0.01,27,-30000.0,30000.0,230.25,91.5,212,0.0,5003.41796875,1493.09,1458.48,631,0.018310546875,100.0,14.76,14.6,755
daab5c74-d97e-4aa1-8723-bdc4de133b37,0.347900390625,63.409423828125,17.5,17.5,757,ok,0.2000000000000444,0.72021484375,14.849853515625,9.12,9.06,708,0.01220703125,70.855712890625,2.43,2.3,703,-15547.355929689238,20887.773569308632,36.32,42.34,608,-46.93881700968232,33.78290785999272,-2.57,-0.05,29,-30000.0,30000.0,33.77,-22.7,204,0.0,5006.022135416667,1492.3,1457.44,633,0.0,100.0,14.62,14.31,755
c093e01e-5766-46bf-b84e-ba312755c400,4.21142578125,49.71923828125,18.05,18.07,839,nok,-0.1499999999999408,0.67138671875,15.093994140625,8.7,8.65,793,0.0244140625,32.7392578125,2.12,2.07,803,-4800.000071525574,4800.000071525574,-5.45,-7.49,580,-10.78651701466421,10.786517014664211,0.51,0.05,23,-6000.000089406968,6000.000089406967,-4.98,1.95,188,0.0,5004.069010416667,1388.55,1348.67,668,0.0,100.0,13.31,13.09,837
0e777868-21d0-4115-9fca-8f13211405e3,1.312255859375,60.1318359375,17.54,17.59,753,nok,-0.058333333333269184,1.025390625,15.087890625,8.9,8.93,689,0.0,72.088623046875,2.1,2.07,712,-15506.26679640441,24000.0,66.22,44.68,602,-253.06624293984257,34.40722092876558,-9.06,-0.2,25,-30000.0,30000.0,557.31,131.05,201,0.0,5004.069010416667,1493.96,1457.73,632,0.0,100.0,14.63,14.34,752
93ccf10c-b129-43a8-8eb8-b0cd4e79d547,2.5390625,70.281982421875,17.63,17.66,746,ok,0.375,0.98876953125,15.2587890625,9.04,8.93,682,0.018310546875,61.9873046875,2.45,2.36,712,-15547.355929689238,23211.602884446496,34.44,23.91,604,-52.160905358306735,53.16132379009487,1.69,0.07,24,-30000.0,30000.0,8.91,11.34,208,0.0,5004.679361979167,1489.25,1459.05,631,0.0,100.0,15.2,14.68,737
ab7137ea-5039-4b08-a5ac-2ae1cc5b2733,0.225830078125,42.852783203125,18.04,18.11,842,ok,0.15833333333332839,0.40283203125,14.886474609375,8.75,8.66,791,0.0,32.275390625,2.15,2.05,791,-4800.000071525574,4800.000071525574,21.53,13.26,580,-10.78651701466421,10.786517014664211,0.37,0.06,20,-6000.000089406968,6000.000089406967,62.44,37.13,194,0.0,5002.848307291667,1389.41,1349.86,668,0.042724609375,99.993896484375,13.58,13.3,842
3730a837-340a-45d6-891e-60982b65995f,0.701904296875,58.251953125,17.67,17.75,750,ok,0.4500000000000444,0.689697265625,14.6240234375,8.97,8.91,690,0.0,70.648193359375,2.48,2.4,704,-24000.0,24000.0,61.85,73.38,609,-190.76547210994607,53.932584269662925,-5.87,-0.14,24,-30000.0,30000.0,-66.23,-27.12,200,0.0,5007.609049479167,1494.47,1459.94,633,0.0,100.0,14.66,14.34,749
538d0ccf-4d74-4e06-8a75-dc79c0cfa71e,0.006103515625,57.183837890625,18.02,18.04,840,ok,0.6500000000000148,0.250244140625,18.829345703125,8.78,8.68,794,0.006103515625,30.57861328125,2.16,2.07,793,-4800.000071525574,4800.000071525574,8.48,-12.03,587,-10.78651701466421,10.786517014664211,-0.28,0.06,23,-6000.000089406968,6000.000089406967,48.31,-30.27,201,0.0,5003.824869791667,1394.47,1349.96,665,0.0,100.0,13.69,13.27,835
e97bd716-12ac-4b5a-bcb7-b31eed42f597,0.384521484375,53.41796875,17.99,18.02,846,nok,-0.1916666666666568,0.634765625,14.971923828125,8.83,8.66,789,0.01220703125,18.0419921875,2.09,2.03,805,-4800.000071525574,4800.000071525574,8.13,-0.71,577,-10.78651701466421,10.786517014664211,-0.09,0.07,22,-6000.000089406968,6000.000089406967,8.48,21.85,181,0.0,5003.336588541667,1391.42,1349.47,667,0.0,100.0,13.02,12.99,845
558f8f33-e04c-4943-a09b-0bf5890441ee,0.616455078125,71.588134765625,17.55,17.57,753,nok,-0.09166666666659759,0.628662109375,14.910888671875,8.98,8.99,708,0.006103515625,71.5087890625,2.52,2.39,710,-15506.26679640441,24000.0,45.11,13.91,606,-53.93258426966291,34.40722092876558,-0.1,0.04,24,-30000.0,30000.0,166.96,49.7,199,0.0,5002.115885416667,1495.24,1459.0,630,0.0,100.0,15.4,15.2,753
ab28aa5e-f07d-4844-ab0b-8a999a9cdbd3,,,,,,nok,-0.291666666666642,,,,,,,,,,,,,,,,,,,,,,,,,,,,,,,,,,,
3cdaa84d-6120-4cdd-95ba-a273d2c6d695,0.244140625,58.48388671875,17.72,17.73,754,nok,-0.1916666666666568,0.634765625,14.764404296875,9.09,9.0,698,0.006103515625,57.275390625,2.38,2.36,715,-24000.0,24000.0,48.75,68.86,609,-36.03733467872716,53.932584269662925,1.67,0.03,22,-30000.0,30000.0,57.22,49.21,209,0.0,5003.662109375,1495.01,1461.1,632,0.0,100.0,14.29,14.16,750
f0f506bf-dccf-4061-acde-38514b6e3f54,0.921630859375,48.9501953125,18.05,18.13,841,nok,-0.083333333333284,0.347900390625,14.996337890625,8.77,8.71,788,0.0,31.365966796875,2.14,2.09,808,-4800.000071525574,4800.000071525574,11.01,-1.33,585,-92.80305513719637,10.786517014664211,-3.58,-0.03,25,-6000.000089406968,6000.000089406967,56.7,5.24,197,0.0,5007.364908854167,1387.94,1346.56,667,0.0,99.993896484375,13.75,13.6,834
9db20e9a-d3c0-4e88-9024-b287792975e3,0.64697265625,81.243896484375,17.93,17.96,759,ok,0,0.87890625,14.788818359375,9.05,9.02,701,0.0,68.890380859375,2.61,2.46,704,-24000.0,21620.243245494974,37.2,15.98,609,-190.76547210994607,53.932584269662925,-4.13,-0.08,26,-30000.0,30000.0,-59.93,-96.93,204,0.0,5004.923502604167,1492.85,1456.98,633,0.0,100.0,14.79,14.64,750
f65f8ebc-84a5-4974-af7d-14779490030a,0.152587890625,59.783935546875,17.54,17.58,755,ok,0.050000000000029604,0.9033203125,14.7705078125,8.94,8.87,679,0.0,68.896484375,2.41,2.34,710,-24000.0,18612.808385529846,-35.68,-44.33,611,-199.5541719369639,53.932584269662925,-4.83,-0.15,26,-30000.0,30000.0,-84.81,26.34,206,0.0,5002.970377604167,1495.23,1460.43,631,0.0,100.0,15.06,14.81,752
cd7826e8-bd5d-4df7-8b92-728bfab40376,0.189208984375,49.786376953125,18.04,18.1,840,nok,-0.0749999999999704,0.5615234375,14.923095703125,8.76,8.67,791,0.0,34.490966796875,2.2,2.1,792,-4800.000071525574,4800.000071525574,1.4,9.31,587,-10.78651701466421,10.786517014664211,1.07,0.07,24,-6000.000089406968,6000.000089406967,-17.79,-0.54,203,-24.861653645833332,5003.824869791667,1387.7,1349.1,668,0.0,100.0,13.24,12.96,833
b5960902-80bb-46a7-999c-027173c68bfc,0.42724609375,48.84033203125,18.0,18.06,840,nok,-0.15833333333332839,0.360107421875,14.8681640625,8.78,8.68,797,0.0,26.025390625,2.11,2.04,799,-4800.000071525574,4800.000071525574,2.59,-12.33,582,-10.78651701466421,10.786517014664211,0.38,0.07,21,-6000.000089406968,6000.000089406967,-25.94,-11.0,185,0.0,5004.5166015625,1390.85,1350.13,667,0.0,100.0,13.45,13.09,838
a79d20eb-e281-4561-b412-54c88a116213,0.0244140625,47.027587890625,18.05,18.11,840,ok,0.2666666666667012,0.360107421875,14.825439453125,8.75,8.67,783,0.0,35.284423828125,2.22,2.19,812,-4800.000071525574,4800.000071525574,-0.52,14.15,585,-126.04821586149265,10.786517014664211,-5.08,-0.15,25,-6000.000089406968,6000.000089406967,79.25,9.1,192,0.0,5003.377278645833,1391.16,1348.82,665,0.0,99.993896484375,13.63,13.27,836
a73f4f24-ba18-483d-b9af-57e7354263f9,2.587890625,65.704345703125,17.76,17.77,759,ok,0.2333333333333728,0.640869140625,14.739990234375,9.03,9.03,697,0.018310546875,70.220947265625,2.71,2.61,716,-24000.0,23797.679271626926,-2.86,3.47,612,-53.47793094747624,53.932584269662925,1.45,0.11,26,-30000.0,30000.0,-323.64,-74.65,207,0.0,5005.126953125,1493.09,1459.91,634,0.0,100.0,15.32,15.03,753
